<?xml version="1.0" encoding="UTF-8" standalone="no"?>
<svg
   xmlns:dc="http://purl.org/dc/elements/1.1/"
   xmlns:cc="http://creativecommons.org/ns#"
   xmlns:rdf="http://www.w3.org/1999/02/22-rdf-syntax-ns#"
   xmlns:svg="http://www.w3.org/2000/svg"
   xmlns="http://www.w3.org/2000/svg"
   xmlns:sodipodi="http://sodipodi.sourceforge.net/DTD/sodipodi-0.dtd"
   xmlns:inkscape="http://www.inkscape.org/namespaces/inkscape"
   version="1.1"
   viewBox="0.0 0.0 64.0 64.0"
   fill="none"
   stroke="none"
   stroke-linecap="square"
   stroke-miterlimit="10"
   id="svg19"
   sodipodi:docname="ArmarXCore-Logo-failure.svg"
   inkscape:version="0.92.3 (2405546, 2018-03-11)">
  <metadata
     id="metadata25">
    <rdf:RDF>
      <cc:Work
         rdf:about="">
        <dc:format>image/svg+xml</dc:format>
        <dc:type
           rdf:resource="http://purl.org/dc/dcmitype/StillImage" />
      </cc:Work>
    </rdf:RDF>
  </metadata>
  <defs
     id="defs23" />
  <sodipodi:namedview
     pagecolor="#ffffff"
     bordercolor="#666666"
     borderopacity="1"
     objecttolerance="10"
     gridtolerance="10"
     guidetolerance="10"
     inkscape:pageopacity="0"
     inkscape:pageshadow="2"
     inkscape:window-width="1920"
     inkscape:window-height="1023"
     id="namedview21"
     showgrid="false"
     inkscape:zoom="3.6875"
     inkscape:cx="-14.779661"
     inkscape:cy="32"
     inkscape:window-x="0"
     inkscape:window-y="0"
     inkscape:window-maximized="1"
     inkscape:current-layer="g17" />
  <clipPath
     id="p.0">
    <path
       d="m0 0l64.0 0l0 64.0l-64.0 0l0 -64.0z"
       clip-rule="nonzero"
       id="path2" />
  </clipPath>
  <g
     clip-path="url(#p.0)"
     id="g17">
    <path
       fill="#000000"
       fill-opacity="0.0"
       d="m0 0l64.0 0l0 64.0l-64.0 0z"
       fill-rule="nonzero"
       id="path5" />
    <path
       fill="#073763"
       d="m0.003555643 10.670436l0 0c0 -5.8911552 4.775725 -10.666881 10.666881 -10.666881l42.666237 0l0 0c2.829033 0 5.542198 1.1238288 7.5426254 3.1242568c2.0004272 2.0004282 3.1242561 4.7135906 3.1242561 7.5426235l0 42.666237c0 5.8911552 -4.7757263 10.666882 -10.666882 10.666882l-42.666237 0c-5.8911552 0 -10.666881 -4.7757263 -10.666881 -10.666882z"
       fill-rule="nonzero"
       id="path7"
       style="fill:#630d07;fill-opacity:1" />
    <path
       fill="#000000"
       fill-opacity="0.0"
       d="m6.997333 -11.084444l62.582676 0l0 53.66929l-62.582676 0z"
       fill-rule="nonzero"
       id="path9" />
    <path
       fill="#ffffff"
       d="m51.95046 52.075554l-9.953125 0l-3.65625 -10.765625l-14.921875 0l-3.59375 10.765625l-9.703126 0l15.125001 -40.890625l11.96875 0l14.734375 40.890625zm-15.75 -17.328125l-5.15625 -15.374998l-0.25 0l-5.171875 15.374998l10.578125 0z"
       fill-rule="nonzero"
       id="path11" />
    <path
       fill="#000000"
       fill-opacity="0.0"
       d="m35.54933 -4.750222l61.70079 0l0 61.259842l-61.70079 0z"
       fill-rule="nonzero"
       id="path13" />
    <path
       fill="#9fc5e8"
       d="m56.58058 23.849775l-4.875 0l-4.0 -6.203125l-4.03125 6.203125l-4.859375 0l6.453125 -8.937499l-6.171875 -8.578125l4.859375 0l3.75 5.828125l3.71875 -5.828125l4.859375 0l-6.171875 8.578125l6.46875 8.937499z"
       fill-rule="nonzero"
       id="path15"
       style="fill:#e8a49f;fill-opacity:1" />
  </g>
</svg>
