<?xml version="1.0" encoding="UTF-8" standalone="no"?>
<svg
   xmlns:dc="http://purl.org/dc/elements/1.1/"
   xmlns:cc="http://creativecommons.org/ns#"
   xmlns:rdf="http://www.w3.org/1999/02/22-rdf-syntax-ns#"
   xmlns:svg="http://www.w3.org/2000/svg"
   xmlns="http://www.w3.org/2000/svg"
   xmlns:sodipodi="http://sodipodi.sourceforge.net/DTD/sodipodi-0.dtd"
   xmlns:inkscape="http://www.inkscape.org/namespaces/inkscape"
   width="400"
   height="300"
   viewBox="4 -293 219.88792 162.98333"
   id="svg2"
   version="1.1"
   inkscape:version="0.48.4 r9939"
   sodipodi:docname="ArmarX-Statechart-SimpleStatechart.svg">
  <metadata
     id="metadata108">
    <rdf:RDF>
      <cc:Work
         rdf:about="">
        <dc:format>image/svg+xml</dc:format>
        <dc:type
           rdf:resource="http://purl.org/dc/dcmitype/StillImage" />
      </cc:Work>
    </rdf:RDF>
  </metadata>
  <defs
     id="defs106" />
  <sodipodi:namedview
     pagecolor="#ffffff"
     bordercolor="#666666"
     borderopacity="1"
     objecttolerance="10"
     gridtolerance="10"
     guidetolerance="10"
     inkscape:pageopacity="0"
     inkscape:pageshadow="2"
     inkscape:window-width="1920"
     inkscape:window-height="1125"
     id="namedview104"
     showgrid="false"
     inkscape:zoom="1.8949642"
     inkscape:cx="213.23989"
     inkscape:cy="149.12961"
     inkscape:window-x="0"
     inkscape:window-y="25"
     inkscape:window-maximized="1"
     inkscape:current-layer="svg2" />
  <g
     id="g4"
     transform="matrix(0.48577955,0,0,0.46622031,2.5789785,-138.21859)">
    <rect
       style="fill:#ffffff"
       x="6"
       y="-291.04001"
       width="446"
       height="306"
       id="rect6" />
    <rect
       style="fill:none;stroke:#000000;stroke-width:2"
       x="6"
       y="-291.04001"
       width="446"
       height="306"
       id="rect8" />
    <text
       style="font-size:12.79979992px;font-style:normal;font-weight:normal;text-anchor:middle;fill:#000000;font-family:sanserif"
       x="229"
       y="-134.14"
       id="text10">
      <tspan
         x="229"
         y="-134.14"
         id="tspan12" />
    </text>
  </g>
  <g
     id="g14"
     transform="matrix(0.48577955,0,0,0.46622031,2.5789785,-138.21859)">
    <rect
       style="fill:#ffffff"
       x="41"
       y="-246.28999"
       width="365"
       height="229.25"
       id="rect16" />
    <rect
       style="fill:none;stroke:#000000;stroke-width:2"
       x="41"
       y="-246.28999"
       width="365"
       height="229.25"
       id="rect18" />
    <text
       style="font-size:12.79979992px;font-style:normal;font-weight:normal;text-anchor:start;fill:#000000;font-family:sanserif"
       x="50"
       y="-127.765"
       id="text20">
      <tspan
         x="50"
         y="-127.765"
         id="tspan22" />
    </text>
  </g>
  <g
     id="g24"
     transform="matrix(0.48577955,0,0,0.46622031,2.5789785,-138.21859)">
    <path
       style="fill:#ffffff"
       d="m 103.725,-185.29 30.55,0 c 4.218,0 7.638,8.954 7.638,20 0,11.045 -3.42,20 -7.638,20 l -30.55,0 c -4.2181,0 -7.6375,-8.955 -7.6375,-20 0,-11.046 3.4194,-20 7.6375,-20 z"
       id="path26"
       inkscape:connector-curvature="0" />
    <path
       style="fill:none;stroke:#000000;stroke-width:2"
       d="m 103.725,-185.29 30.55,0 c 4.218,0 7.638,8.954 7.638,20 0,11.045 -3.42,20 -7.638,20 l -30.55,0 c -4.2181,0 -7.6375,-8.955 -7.6375,-20 0,-11.046 3.4194,-20 7.6375,-20"
       id="path28"
       inkscape:connector-curvature="0" />
    <text
       style="font-size:12.79979992px;font-style:normal;font-weight:normal;text-anchor:middle;fill:#000000;font-family:sanserif"
       x="119"
       y="-161.28999"
       id="text30">
      <tspan
         x="119"
         y="-161.28999"
         id="tspan32">Run</tspan>
    </text>
  </g>
  <g
     id="g34"
     transform="matrix(0.48577955,0,0,0.46622031,2.5789785,-138.21859)">
    <path
       style="fill:#00ff00"
       d="m 286.75,-190.29 50.5,0 c 6.973,0 12.625,8.954 12.625,20 0,11.045 -5.652,20 -12.625,20 l -50.5,0 c -6.973,0 -12.625,-8.955 -12.625,-20 0,-11.046 5.652,-20 12.625,-20 z"
       id="path36"
       inkscape:connector-curvature="0" />
    <path
       style="fill:none;stroke:#000000;stroke-width:2"
       d="m 286.75,-190.29 50.5,0 c 6.973,0 12.625,8.954 12.625,20 0,11.045 -5.652,20 -12.625,20 l -50.5,0 c -6.973,0 -12.625,-8.955 -12.625,-20 0,-11.046 5.652,-20 12.625,-20"
       id="path38"
       inkscape:connector-curvature="0" />
    <text
       style="font-size:12.79979992px;font-style:normal;font-weight:normal;text-anchor:middle;fill:#000000;font-family:sanserif"
       x="312"
       y="-166.28999"
       id="text40">
      <tspan
         x="312"
         y="-166.28999"
         id="tspan42">Sucess</tspan>
    </text>
  </g>
  <g
     id="g44"
     transform="matrix(0.48577955,0,0,0.46622031,2.5789785,-138.21859)">
    <path
       style="fill:#ff0000"
       d="m 310.325,-99.3904 50.5,0 c 6.973,0 12.625,8.9543 12.625,20 0,11.0457 -5.652,20 -12.625,20 l -50.5,0 c -6.973,0 -12.625,-8.9543 -12.625,-20 0,-11.0457 5.652,-20 12.625,-20 z"
       id="path46"
       inkscape:connector-curvature="0" />
    <path
       style="fill:none;stroke:#000000;stroke-width:2"
       d="m 310.325,-99.3904 50.5,0 c 6.973,0 12.625,8.9543 12.625,20 0,11.0457 -5.652,20 -12.625,20 l -50.5,0 c -6.973,0 -12.625,-8.9543 -12.625,-20 0,-11.0457 5.652,-20 12.625,-20"
       id="path48"
       inkscape:connector-curvature="0" />
    <text
       style="font-size:12.79979992px;font-style:normal;font-weight:normal;text-anchor:middle;fill:#000000;font-family:sanserif"
       x="335.57501"
       y="-75.390404"
       id="text50">
      <tspan
         x="335.57501"
         y="-75.390404"
         id="tspan52">Failure</tspan>
    </text>
  </g>
  <text
     style="font-size:6.09141779px;font-style:normal;font-weight:normal;text-anchor:start;fill:#000000;font-family:sanserif"
     x="23.942001"
     y="-251.63481"
     id="text54"
     transform="scale(1.0207609,0.97966135)">
    <tspan
       x="23.942001"
       y="-251.63481"
       id="tspan56">Simple Statechart</tspan>
  </text>
  <g
     id="g58"
     transform="matrix(0.48577955,0,0,0.46622031,2.5789785,-138.21859)">
    <line
       style="fill:none;stroke:#000000;stroke-width:2"
       x1="65"
       y1="-218.28999"
       x2="93.824799"
       y2="-169.14799"
       id="line60" />
    <polyline
       style="fill:none;stroke:#000000;stroke-width:2"
       points="85.5839,-173.315 94.9562,-167.219 94.2096,-178.375 "
       id="polyline62" />
  </g>
  <g
     id="g64"
     transform="matrix(0.48577955,0,0,0.46622031,2.5789785,-138.21859)">
    <line
       style="fill:none;stroke:#000000;stroke-width:2"
       x1="141.91299"
       y1="-165.28999"
       x2="268.724"
       y2="-169.01801"
       id="line66" />
    <polyline
       style="fill:none;stroke:#000000;stroke-width:2"
       points="261.111,-163.792 270.96,-169.084 260.817,-173.788 "
       id="polyline68" />
  </g>
  <g
     id="g70"
     transform="matrix(0.48577955,0,0,0.46622031,2.5789785,-138.21859)">
    <line
       style="fill:none;stroke:#000000;stroke-width:2"
       x1="142.067"
       y1="-156.142"
       x2="296.03799"
       y2="-95.071899"
       id="line72" />
    <polyline
       style="fill:none;stroke:#000000;stroke-width:2"
       points="286.978,-93.2866 298.117,-94.2475 290.665,-102.582 "
       id="polyline74" />
  </g>
  <g
     id="g76"
     transform="matrix(0.48577955,0,0,0.46622031,2.5789785,-138.21859)">
    <line
       style="fill:none;stroke:#000000;stroke-width:2"
       x1="342.509"
       y1="-189.61301"
       x2="398.22198"
       y2="-224.89799"
       id="line78" />
    <polyline
       style="fill:none;stroke:#000000;stroke-width:2"
       points="394.338,-216.519 400.111,-226.094 388.987,-224.968 "
       id="polyline80" />
  </g>
  <g
     id="g82"
     transform="matrix(0.48577955,0,0,0.46622031,2.5789785,-138.21859)">
    <line
       style="fill:none;stroke:#000000;stroke-width:2"
       x1="345.02802"
       y1="-100.358"
       x2="398.16199"
       y2="-218.213"
       id="line84" />
    <polyline
       style="fill:none;stroke:#000000;stroke-width:2"
       points="399.529,-209.081 399.081,-220.252 390.413,-213.191 "
       id="polyline86" />
  </g>
  <text
     style="font-size:6.09141779px;font-style:normal;font-weight:normal;text-anchor:start;fill:#000000;font-family:sanserif"
     x="144.58919"
     y="-201.68155"
     id="text88"
     transform="scale(1.0207609,0.97966135)">
    <tspan
       x="144.58919"
       y="-201.68155"
       id="tspan90">EvFailure</tspan>
  </text>
  <text
     style="font-size:6.09141779px;font-style:normal;font-weight:normal;text-anchor:start;fill:#000000;font-family:sanserif"
     x="144.34456"
     y="-239.02347"
     id="text92"
     transform="scale(1.0207609,0.97966135)">
    <tspan
       x="144.34456"
       y="-239.02347"
       id="tspan94">EvSuccess</tspan>
  </text>
  <text
     style="font-size:6.09141779px;font-style:normal;font-weight:normal;text-anchor:start;fill:#000000;font-family:sanserif"
     x="88.188423"
     y="-224.2706"
     id="text96"
     transform="scale(1.0207609,0.97966135)">
    <tspan
       x="88.188423"
       y="-224.2706"
       id="tspan98">EvWorkDone</tspan>
  </text>
  <text
     style="font-size:6.09141779px;font-style:normal;font-weight:normal;text-anchor:start;fill:#000000;font-family:sanserif"
     x="108.89005"
     y="-203.74744"
     id="text100"
     transform="scale(1.0207609,0.97966135)">
    <tspan
       x="108.89005"
       y="-203.74744"
       id="tspan102">EvCrash</tspan>
  </text>
</svg>
